BBC one='https://www.bbc.co.uk/iplayer/live/bbcone'
BBC two='https://www.bbc.co.uk/iplayer/live/bbctwo'
BBC Scotland='https://www.bbc.co.uk/iplayer/live/bbcscotland'
BBC four='https://www.bbc.co.uk/iplayer/live/bbcfour'
CBBC='https://www.bbc.co.uk/iplayer/live/cbbc'
CBeebies='https://www.bbc.co.uk/iplayer/live/cbeebies'
BBC News='https://www.bbc.co.uk/iplayer/live/bbcnews'
BBC Parliament='https://www.bbc.co.uk/iplayer/live/bbcparliament'
BBC alba='https://www.bbc.co.uk/iplayer/live/bbcalba'
Now TV='https://en.wikipedia.org/wiki/Now_TV_(UK)'
Dave='https://uktvplay.uktv.co.uk/watch-live/dave'
Drama='https://uktvplay.uktv.co.uk/watch-live/drama'
Yesterday='https://uktvplay.uktv.co.uk/watch-live/yesterday'
ITV='https://www.itv.com/hub/itv'
STV='https://player.stv.tv/live/stv'
ITV 2='https://itv.com/hub/itv2'
ITV 3='https://itv.com/hub/itv3'
ITV 4='https://itv.com/hub/itv4'
ITV Be='https://itv.com/hub/itvbe'
CITV='https://itv.com/hub/citv'
Channel 4='https://www.channel4.com/now/C4'
E 4='https://www.channel4.com/now/E4'
More 4='https://www.channel4.com/now/M4'
Film 4='https://www.channel4.com/now/F4'
4 seven='https://www.channel4.com/now/4S'
4 Music='https://www.boxplus.com/?channel=4music'
The Box='https://www.boxplus.com/?channel=the-box'
Box Hits='https://www.boxplus.com/?channel=box-hits'
Kerrang!='https://www.boxplus.com/?channel=kerrang'
Kiss='https://www.boxplus.com/?channel=kiss'
Magic='https://www.boxplus.com/?channel=magic'
Channel 5='https://www.my5.tv/channels/channel-5'
5 Select='https://www.my5.tv/channels/5select'
5 Star='https://www.my5.tv/channels/5-star'
5 USA='https://www.my5.tv/channels/paramount-network'
